code/validateFlickerFidelity/tektronixDataFiles/TEK0005.CSV

Record Length,2.500000e+03,,  -0.125000000000,  -0.15600,
Sample Interval,1.000000e-04,,  -0.124900000000,  -0.15520,
Trigger Point,1.250000000000e+03,,  -0.124800000000,  -0.15520,
,,,  -0.124700000000,  -0.15440,
,,,  -0.124600000000,  -0.15440,
,,,  -0.124500000000,  -0.15360,
Source,CH1,,  -0.124400000000,  -0.15360,
Vertical Units,V,,  -0.124300000000,  -0.15280,
Vertical Scale,2.000000e-02,,  -0.124200000000,  -0.15120,
Vertical Offset,1.080000e-01,,  -0.124100000000,  -0.14960,
Horizontal Units,s,,  -0.124000000000,  -0.14960,
Horizontal Scale,2.500000e-02,,  -0.123900000000,  -0.14960,
Pt Fmt,Y,,  -0.123800000000,  -0.14880,
Yzero,0.000000e+00,,  -0.123700000000,  -0.14800,
Probe Atten,1.000000e+00,,  -0.123600000000,  -0.14800,
Model Number,TDS2002B,,  -0.123500000000,  -0.14640,
Serial Number,C100563,,  -0.123400000000,  -0.14480,
Firmware Version,FV:v22.01,,  -0.123300000000,  -0.14480,
,,,-00.123200000000,  -0.14400,
,,,-00.123100000000,  -0.14240,
,,,-00.123000000000,  -0.14160,
,,,-00.122900000000,  -0.14080,
,,,-00.122800000000,  -0.14000,
,,,-00.122700000000,  -0.13840,
,,,-00.122600000000,  -0.13840,
,,,-00.122500000000,  -0.13840,
,,,-00.122400000000,  -0.13680,
,,,-00.122300000000,  -0.13600,
,,,-00.122200000000,  -0.13600,
,,,-00.122100000000,  -0.13520,
,,,-00.122000000000,  -0.13520,
,,,-00.121900000000,  -0.13440,
,,,-00.121800000000,  -0.13360,
,,,-00.121700000000,  -0.13360,
,,,-00.121600000000,  -0.13200,
,,,-00.121500000000,  -0.13200,
,,,-00.121400000000,  -0.13200,
,,,-00.121300000000,  -0.13040,
,,,-00.121200000000,  -0.13040,
,,,-00.121100000000,  -0.12880,
,,,-00.121000000000,  -0.12880,
,,,-00.120900000000,  -0.12880,
,,,-00.120800000000,  -0.12800,
,,,-00.120700000000,  -0.12640,
,,,-00.120600000000,  -0.12480,
,,,-00.120500000000,  -0.12480,
,,,-00.120400000000,  -0.12400,
,,,-00.120300000000,  -0.12320,
,,,-00.120200000000,  -0.12240,
,,,-00.120100000000,  -0.12240,
,,,-00.120000000000,  -0.12160,
,,,-00.119900000000,  -0.12080,
,,,-00.119800000000,  -0.11920,
,,,-00.119700000000,  -0.11920,
,,,-00.119600000000,  -0.11760,
,,,-00.119500000000,  -0.11760,
,,,-00.119400000000,  -0.11600,
,,,-00.119300000000,  -0.11520,
,,,-00.119200000000,  -0.11520,
,,,-00.119100000000,  -0.11280,
,,,-00.119000000000,  -0.11040,
,,,-00.118900000000,  -0.10960,
,,,-00.118800000000,  -0.10880,
,,,-00.118700000000,  -0.10640,
,,,-00.118600000000,  -0.10560,
,,,-00.118500000000,  -0.10400,
,,,-00.118400000000,  -0.10160,
,,,-00.118300000000,  -0.10240,
,,,-00.118200000000,  -0.10080,
,,,-00.118100000000,  -0.09920,
,,,-00.118000000000,  -0.09760,
,,,-00.117900000000,  -0.09760,
,,,-00.117800000000,  -0.09600,
,,,-00.117700000000,  -0.09520,
,,,-00.117600000000,  -0.09360,
,,,-00.117500000000,  -0.09280,
,,,-00.117400000000,  -0.09200,
,,,-00.117300000000,  -0.09120,
,,,-00.117200000000,  -0.08960,
,,,-00.117100000000,  -0.08800,
,,,-00.117000000000,  -0.08640,
,,,-00.116900000000,  -0.08560,
,,,-00.116800000000,  -0.08480,
,,,-00.116700000000,  -0.08400,
,,,-00.116600000000,  -0.08240,
,,,-00.116500000000,  -0.08080,
,,,-00.116400000000,  -0.08000,
,,,-00.116300000000,  -0.07840,
,,,-00.116200000000,  -0.07680,
,,,-00.116100000000,  -0.07520,
,,,-00.116000000000,  -0.07440,
,,,-00.115900000000,  -0.07280,
,,,-00.115800000000,  -0.07200,
,,,-00.115700000000,  -0.07120,
,,,-00.115600000000,  -0.06960,
,,,-00.115500000000,  -0.06880,
,,,-00.115400000000,  -0.06720,
,,,-00.115300000000,  -0.06800,
,,,-00.115200000000,  -0.06640,
,,,-00.115100000000,  -0.06560,
,,,-00.115000000000,  -0.06480,
,,,-00.114900000000,  -0.06400,
,,,-00.114800000000,  -0.06320,
,,,-00.114700000000,  -0.06240,
,,,-00.114600000000,  -0.06160,
,,,-00.114500000000,  -0.06080,
,,,-00.114400000000,  -0.06000,
,,,-00.114300000000,  -0.05920,
,,,-00.114200000000,  -0.05840,
,,,-00.114100000000,  -0.05760,
,,,-00.114000000000,  -0.05760,
,,,-00.113900000000,  -0.05680,
,,,-00.113800000000,  -0.05680,
,,,-00.113700000000,  -0.05520,
,,,-00.113600000000,  -0.05520,
,,,-00.113500000000,  -0.05440,
,,,-00.113400000000,  -0.05360,
,,,-00.113300000000,  -0.05360,
,,,-00.113200000000,  -0.05280,
,,,-00.113100000000,  -0.05200,
,,,-00.113000000000,  -0.05120,
,,,-00.112900000000,  -0.05120,
,,,-00.112800000000,  -0.05120,
,,,-00.112700000000,  -0.04960,
,,,-00.112600000000,  -0.04880,
,,,-00.112500000000,  -0.04880,
,,,-00.112400000000,  -0.04800,
,,,-00.112300000000,  -0.04720,
,,,-00.112200000000,  -0.04720,
,,,-00.112100000000,  -0.04640,
,,,-00.112000000000,  -0.04560,
,,,-00.111900000000,  -0.04560,
,,,-00.111800000000,  -0.04560,
,,,-00.111700000000,  -0.04400,
,,,-00.111600000000,  -0.04400,
,,,-00.111500000000,  -0.04320,
,,,-00.111400000000,  -0.04320,
,,,-00.111300000000,  -0.04240,
,,,-00.111200000000,  -0.04240,
,,,-00.111100000000,  -0.04160,
,,,-00.111000000000,  -0.04160,
,,,-00.110900000000,  -0.04160,
,,,-00.110800000000,  -0.04080,
,,,-00.110700000000,  -0.04080,
,,,-00.110600000000,  -0.04000,
,,,-00.110500000000,  -0.04000,
,,,-00.110400000000,  -0.04080,
,,,-00.110300000000,  -0.04000,
,,,-00.110200000000,  -0.03920,
,,,-00.110100000000,  -0.03920,
,,,-00.110000000000,  -0.03920,
,,,-00.109900000000,  -0.03840,
,,,-00.109800000000,  -0.03840,
,,,-00.109700000000,  -0.03920,
,,,-00.109600000000,  -0.03920,
,,,-00.109500000000,  -0.03920,
,,,-00.109400000000,  -0.04000,
,,,-00.109300000000,  -0.04000,
,,,-00.109200000000,  -0.04000,
,,,-00.109100000000,  -0.03920,
,,,-00.109000000000,  -0.04000,
,,,-00.108900000000,  -0.03920,
,,,-00.108800000000,  -0.04000,
,,,-00.108700000000,  -0.04000,
,,,-00.108600000000,  -0.04080,
,,,-00.108500000000,  -0.04080,
,,,-00.108400000000,  -0.04080,
,,,-00.108300000000,  -0.04080,
,,,-00.108200000000,  -0.04080,
,,,-00.108100000000,  -0.04080,
,,,-00.108000000000,  -0.04080,
,,,-00.107900000000,  -0.04080,
,,,-00.107800000000,  -0.04080,
,,,-00.107700000000,  -0.04160,
,,,-00.107600000000,  -0.04240,
,,,-00.107500000000,  -0.04240,
,,,-00.107400000000,  -0.04160,
,,,-00.107300000000,  -0.04240,
,,,-00.107200000000,  -0.04240,
,,,-00.107100000000,  -0.04320,
,,,-00.107000000000,  -0.04320,
,,,-00.106900000000,  -0.04320,
,,,-00.106800000000,  -0.04400,
,,,-00.106700000000,  -0.04480,
,,,-00.106600000000,  -0.04480,
,,,-00.106500000000,  -0.04560,
,,,-00.106400000000,  -0.04640,
,,,-00.106300000000,  -0.04640,
,,,-00.106200000000,  -0.04720,
,,,-00.106100000000,  -0.04800,
,,,-00.106000000000,  -0.04800,
,,,-00.105900000000,  -0.04960,
,,,-00.105800000000,  -0.04960,
,,,-00.105700000000,  -0.04960,
,,,-00.105600000000,  -0.05040,
,,,-00.105500000000,  -0.05200,
,,,-00.105400000000,  -0.05360,
,,,-00.105300000000,  -0.05600,
,,,-00.105200000000,  -0.05680,
,,,-00.105100000000,  -0.05760,
,,,-00.105000000000,  -0.05840,
,,,-00.104900000000,  -0.06000,
,,,-00.104800000000,  -0.06080,
,,,-00.104700000000,  -0.06240,
,,,-00.104600000000,  -0.06320,
,,,-00.104500000000,  -0.06400,
,,,-00.104400000000,  -0.06560,
,,,-00.104300000000,  -0.06640,
,,,-00.104200000000,  -0.06720,
,,,-00.104100000000,  -0.06800,
,,,-00.104000000000,  -0.06960,
,,,-00.103900000000,  -0.07040,
,,,-00.103800000000,  -0.07120,
,,,-00.103700000000,  -0.07200,
,,,-00.103600000000,  -0.07360,
,,,-00.103500000000,  -0.07520,
,,,-00.103400000000,  -0.07600,
,,,-00.103300000000,  -0.07760,
,,,-00.103200000000,  -0.07840,
,,,-00.103100000000,  -0.08000,
,,,-00.103000000000,  -0.08160,
,,,-00.102900000000,  -0.08320,
,,,-00.102800000000,  -0.08560,
,,,-00.102700000000,  -0.08640,
,,,-00.102600000000,  -0.08880,
,,,-00.102500000000,  -0.08880,
,,,-00.102400000000,  -0.09040,
,,,-00.102300000000,  -0.09200,
,,,-00.102200000000,  -0.09280,
,,,-00.102100000000,  -0.09440,
,,,-00.102000000000,  -0.09600,
,,,-00.101900000000,  -0.09760,
,,,-00.101800000000,  -0.09760,
,,,-00.101700000000,  -0.09920,
,,,-00.101600000000,  -0.09920,
,,,-00.101500000000,  -0.10080,
,,,-00.101400000000,  -0.10160,
,,,-00.101300000000,  -0.10240,
,,,-00.101200000000,  -0.10320,
,,,-00.101100000000,  -0.10480,
,,,-00.101000000000,  -0.10560,
,,,-00.100900000000,  -0.10720,
,,,-00.100800000000,  -0.10800,
,,,-00.100700000000,  -0.10880,
,,,-00.100600000000,  -0.10880,
,,,-00.100500000000,  -0.11040,
,,,-00.100400000000,  -0.11120,
,,,-00.100300000000,  -0.11280,
,,,-00.100200000000,  -0.11360,
,,,-00.100100000000,  -0.11440,
,,,-00.100000000000,  -0.11760,
,,,-00.099900000000,  -0.11760,
,,,-00.099800000000,  -0.11760,
,,,-00.099700000000,  -0.11840,
,,,-00.099600000000,  -0.12080,
,,,-00.099500000000,  -0.12080,
,,,-00.099400000000,  -0.12240,
,,,-00.099300000000,  -0.12320,
,,,-00.099200000000,  -0.12400,
,,,-00.099100000000,  -0.12560,
,,,-00.099000000000,  -0.12560,
,,,-00.098900000000,  -0.12800,
,,,-00.098800000000,  -0.12800,
,,,-00.098700000000,  -0.13040,
,,,-00.098600000000,  -0.13120,
,,,-00.098500000000,  -0.13360,
,,,-00.098400000000,  -0.13520,
,,,-00.098300000000,  -0.13600,
,,,-00.098200000000,  -0.13680,
,,,-00.098100000000,  -0.13840,
,,,-00.098000000000,  -0.13920,
,,,-00.097900000000,  -0.14080,
,,,-00.097800000000,  -0.14160,
,,,-00.097700000000,  -0.14320,
,,,-00.097600000000,  -0.14400,
,,,-00.097500000000,  -0.14400,
,,,-00.097400000000,  -0.14560,
,,,-00.097300000000,  -0.14560,
,,,-00.097200000000,  -0.14720,
,,,-00.097100000000,  -0.14720,
,,,-00.097000000000,  -0.14800,
,,,-00.096900000000,  -0.14960,
,,,-00.096800000000,  -0.15040,
,,,-00.096700000000,  -0.15040,
,,,-00.096600000000,  -0.15120,
,,,-00.096500000000,  -0.15200,
,,,-00.096400000000,  -0.15360,
,,,-00.096300000000,  -0.15440,
,,,-00.096200000000,  -0.15520,
,,,-00.096100000000,  -0.15680,
,,,-00.096000000000,  -0.15680,
,,,-00.095900000000,  -0.15840,
,,,-00.095800000000,  -0.15840,
,,,-00.095700000000,  -0.16000,
,,,-00.095600000000,  -0.16000,
,,,-00.095500000000,  -0.16000,
,,,-00.095400000000,  -0.16080,
,,,-00.095300000000,  -0.16160,
,,,-00.095200000000,  -0.16240,
,,,-00.095100000000,  -0.16240,
,,,-00.095000000000,  -0.16240,
,,,-00.094900000000,  -0.16400,
,,,-00.094800000000,  -0.16400,
,,,-00.094700000000,  -0.16400,
,,,-00.094600000000,  -0.16400,
,,,-00.094500000000,  -0.16480,
,,,-00.094400000000,  -0.16560,
,,,-00.094300000000,  -0.16480,
,,,-00.094200000000,  -0.16560,
,,,-00.094100000000,  -0.16480,
,,,-00.094000000000,  -0.16560,
,,,-00.093900000000,  -0.16640,
,,,-00.093800000000,  -0.16720,
,,,-00.093700000000,  -0.16720,
,,,-00.093600000000,  -0.16800,
,,,-00.093500000000,  -0.16800,
,,,-00.093400000000,  -0.16800,
,,,-00.093300000000,  -0.16800,
,,,-00.093200000000,  -0.16880,
,,,-00.093100000000,  -0.16880,
,,,-00.093000000000,  -0.16880,
,,,-00.092900000000,  -0.16960,
,,,-00.092800000000,  -0.16960,
,,,-00.092700000000,  -0.16960,
,,,-00.092600000000,  -0.17040,
,,,-00.092500000000,  -0.16960,
,,,-00.092400000000,  -0.17040,
,,,-00.092300000000,  -0.17040,
,,,-00.092200000000,  -0.17120,
,,,-00.092100000000,  -0.17120,
,,,-00.092000000000,  -0.17200,
,,,-00.091900000000,  -0.17120,
,,,-00.091800000000,  -0.17200,
,,,-00.091700000000,  -0.17200,
,,,-00.091600000000,  -0.17280,
,,,-00.091500000000,  -0.17280,
,,,-00.091400000000,  -0.17360,
,,,-00.091300000000,  -0.17280,
,,,-00.091200000000,  -0.17360,
,,,-00.091100000000,  -0.17360,
,,,-00.091000000000,  -0.17440,
,,,-00.090900000000,  -0.17360,
,,,-00.090800000000,  -0.17360,
,,,-00.090700000000,  -0.17440,
,,,-00.090600000000,  -0.17440,
,,,-00.090500000000,  -0.17440,
,,,-00.090400000000,  -0.17520,
,,,-00.090300000000,  -0.17440,
,,,-00.090200000000,  -0.17440,
,,,-00.090100000000,  -0.17440,
,,,-00.090000000000,  -0.17520,
,,,-00.089900000000,  -0.17520,
,,,-00.089800000000,  -0.17520,
,,,-00.089700000000,  -0.17520,
,,,-00.089600000000,  -0.17520,
,,,-00.089500000000,  -0.17520,
,,,-00.089400000000,  -0.17520,
,,,-00.089300000000,  -0.17520,
,,,-00.089200000000,  -0.17520,
,,,-00.089100000000,  -0.17600,
,,,-00.089000000000,  -0.17600,
,,,-00.088900000000,  -0.17600,
,,,-00.088800000000,  -0.17600,
,,,-00.088700000000,  -0.17520,
,,,-00.088600000000,  -0.17520,
,,,-00.088500000000,  -0.17520,
,,,-00.088400000000,  -0.17520,
,,,-00.088300000000,  -0.17520,
,,,-00.088200000000,  -0.17520,
,,,-00.088100000000,  -0.17520,
,,,-00.088000000000,  -0.17520,
,,,-00.087900000000,  -0.17520,
,,,-00.087800000000,  -0.17520,
,,,-00.087700000000,  -0.17520,
,,,-00.087600000000,  -0.17600,
,,,-00.087500000000,  -0.17520,
,,,-00.087400000000,  -0.17440,
,,,-00.087300000000,  -0.17520,
,,,-00.087200000000,  -0.17520,
,,,-00.087100000000,  -0.17440,
,,,-00.087000000000,  -0.17520,
,,,-00.086900000000,  -0.17520,
,,,-00.086800000000,  -0.17520,
,,,-00.086700000000,  -0.17520,
,,,-00.086600000000,  -0.17440,
,,,-00.086500000000,  -0.17440,
,,,-00.086400000000,  -0.17360,
,,,-00.086300000000,  -0.17360,
,,,-00.086200000000,  -0.17360,
,,,-00.086100000000,  -0.17360,
,,,-00.086000000000,  -0.17360,
,,,-00.085900000000,  -0.17440,
,,,-00.085800000000,  -0.17360,
,,,-00.085700000000,  -0.17360,
,,,-00.085600000000,  -0.17360,
,,,-00.085500000000,  -0.17280,
,,,-00.085400000000,  -0.17280,
,,,-00.085300000000,  -0.17280,
,,,-00.085200000000,  -0.17200,
,,,-00.085100000000,  -0.17200,
,,,-00.085000000000,  -0.17200,
,,,-00.084900000000,  -0.17120,
,,,-00.084800000000,  -0.17120,
,,,-00.084700000000,  -0.17120,
,,,-00.084600000000,  -0.16960,
,,,-00.084500000000,  -0.16960,
,,,-00.084400000000,  -0.17040,
,,,-00.084300000000,  -0.17040,
,,,-00.084200000000,  -0.16880,
,,,-00.084100000000,  -0.16880,
,,,-00.084000000000,  -0.16880,
,,,-00.083900000000,  -0.16880,
,,,-00.083800000000,  -0.16800,
,,,-00.083700000000,  -0.16800,
,,,-00.083600000000,  -0.16800,
,,,-00.083500000000,  -0.16720,
,,,-00.083400000000,  -0.16720,
,,,-00.083300000000,  -0.16640,
,,,-00.083200000000,  -0.16640,
,,,-00.083100000000,  -0.16640,
,,,-00.083000000000,  -0.16640,
,,,-00.082900000000,  -0.16560,
,,,-00.082800000000,  -0.16480,
,,,-00.082700000000,  -0.16400,
,,,-00.082600000000,  -0.16400,
,,,-00.082500000000,  -0.16240,
,,,-00.082400000000,  -0.16240,
,,,-00.082300000000,  -0.16160,
,,,-00.082200000000,  -0.16080,
,,,-00.082100000000,  -0.16000,
,,,-00.082000000000,  -0.16080,
,,,-00.081900000000,  -0.16000,
,,,-00.081800000000,  -0.15920,
,,,-00.081700000000,  -0.15920,
,,,-00.081600000000,  -0.15840,
,,,-00.081500000000,  -0.15840,
,,,-00.081400000000,  -0.15840,
,,,-00.081300000000,  -0.15760,
,,,-00.081200000000,  -0.15680,
,,,-00.081100000000,  -0.15760,
,,,-00.081000000000,  -0.15680,
,,,-00.080900000000,  -0.15760,
,,,-00.080800000000,  -0.15600,
,,,-00.080700000000,  -0.15600,
,,,-00.080600000000,  -0.15520,
,,,-00.080500000000,  -0.15520,
,,,-00.080400000000,  -0.15440,
,,,-00.080300000000,  -0.15440,
,,,-00.080200000000,  -0.15360,
,,,-00.080100000000,  -0.15360,
,,,-00.080000000000,  -0.15280,
,,,-00.079900000000,  -0.15200,
,,,-00.079800000000,  -0.15120,
,,,-00.079700000000,  -0.15120,
,,,-00.079600000000,  -0.15040,
,,,-00.079500000000,  -0.14960,
,,,-00.079400000000,  -0.14960,
,,,-00.079300000000,  -0.14880,
,,,-00.079200000000,  -0.14880,
,,,-00.079100000000,  -0.14720,
,,,-00.079000000000,  -0.14640,
,,,-00.078900000000,  -0.14560,
,,,-00.078800000000,  -0.14560,
,,,-00.078700000000,  -0.14560,
,,,-00.078600000000,  -0.14480,
,,,-00.078500000000,  -0.14400,
,,,-00.078400000000,  -0.14320,
,,,-00.078300000000,  -0.14160,
,,,-00.078200000000,  -0.14080,
,,,-00.078100000000,  -0.13920,
,,,-00.078000000000,  -0.13760,
,,,-00.077900000000,  -0.13680,
,,,-00.077800000000,  -0.13680,
,,,-00.077700000000,  -0.13520,
,,,-00.077600000000,  -0.13360,
,,,-00.077500000000,  -0.13360,
,,,-00.077400000000,  -0.13200,
,,,-00.077300000000,  -0.13200,
,,,-00.077200000000,  -0.13040,
,,,-00.077100000000,  -0.13040,
,,,-00.077000000000,  -0.12960,
,,,-00.076900000000,  -0.12880,
,,,-00.076800000000,  -0.12800,
,,,-00.076700000000,  -0.12560,
,,,-00.076600000000,  -0.12480,
,,,-00.076500000000,  -0.12480,
,,,-00.076400000000,  -0.12320,
,,,-00.076300000000,  -0.12160,
,,,-00.076200000000,  -0.12240,
,,,-00.076100000000,  -0.12080,
,,,-00.076000000000,  -0.12000,
,,,-00.075900000000,  -0.11760,
,,,-00.075800000000,  -0.11680,
,,,-00.075700000000,  -0.11520,
,,,-00.075600000000,  -0.11440,
,,,-00.075500000000,  -0.11200,
,,,-00.075400000000,  -0.11040,
,,,-00.075300000000,  -0.10960,
,,,-00.075200000000,  -0.10880,
,,,-00.075100000000,  -0.10720,
,,,-00.075000000000,  -0.10560,
,,,-00.074900000000,  -0.10560,
,,,-00.074800000000,  -0.10480,
,,,-00.074700000000,  -0.10320,
,,,-00.074600000000,  -0.10240,
,,,-00.074500000000,  -0.10080,
,,,-00.074400000000,  -0.10000,
,,,-00.074300000000,  -0.10000,
,,,-00.074200000000,  -0.09920,
,,,-00.074100000000,  -0.09840,
,,,-00.074000000000,  -0.09760,
,,,-00.073900000000,  -0.09600,
,,,-00.073800000000,  -0.09440,
,,,-00.073700000000,  -0.09440,
,,,-00.073600000000,  -0.09360,
,,,-00.073500000000,  -0.09280,
,,,-00.073400000000,  -0.09280,
,,,-00.073300000000,  -0.09280,
,,,-00.073200000000,  -0.09120,
,,,-00.073100000000,  -0.08960,
,,,-00.073000000000,  -0.08880,
,,,-00.072900000000,  -0.08800,
,,,-00.072800000000,  -0.08640,
,,,-00.072700000000,  -0.08560,
,,,-00.072600000000,  -0.08480,
,,,-00.072500000000,  -0.08480,
,,,-00.072400000000,  -0.08480,
,,,-00.072300000000,  -0.08480,
,,,-00.072200000000,  -0.08240,
,,,-00.072100000000,  -0.08160,
,,,-00.072000000000,  -0.08080,
,,,-00.071900000000,  -0.08000,
,,,-00.071800000000,  -0.07840,
,,,-00.071700000000,  -0.07760,
,,,-00.071600000000,  -0.07680,
,,,-00.071500000000,  -0.07600,
,,,-00.071400000000,  -0.07520,
,,,-00.071300000000,  -0.07360,
,,,-00.071200000000,  -0.07120,
,,,-00.071100000000,  -0.07040,
,,,-00.071000000000,  -0.06960,
,,,-00.070900000000,  -0.06880,
,,,-00.070800000000,  -0.06720,
,,,-00.070700000000,  -0.06640,
,,,-00.070600000000,  -0.06480,
,,,-00.070500000000,  -0.06400,
,,,-00.070400000000,  -0.06320,
,,,-00.070300000000,  -0.06320,
,,,-00.070200000000,  -0.06160,
,,,-00.070100000000,  -0.06080,
,,,-00.070000000000,  -0.06000,
,,,-00.069900000000,  -0.05920,
,,,-00.069800000000,  -0.05840,
,,,-00.069700000000,  -0.05760,
,,,-00.069600000000,  -0.05680,
,,,-00.069500000000,  -0.05600,
,,,-00.069400000000,  -0.05440,
,,,-00.069300000000,  -0.05440,
,,,-00.069200000000,  -0.05440,
,,,-00.069100000000,  -0.05280,
,,,-00.069000000000,  -0.05200,
,,,-00.068900000000,  -0.05040,
,,,-00.068800000000,  -0.04960,
,,,-00.068700000000,  -0.04960,
,,,-00.068600000000,  -0.04880,
,,,-00.068500000000,  -0.04720,
,,,-00.068400000000,  -0.04720,
,,,-00.068300000000,  -0.04720,
,,,-00.068200000000,  -0.04560,
,,,-00.068100000000,  -0.04560,
,,,-00.068000000000,  -0.04480,
,,,-00.067900000000,  -0.04400,
,,,-00.067800000000,  -0.04400,
,,,-00.067700000000,  -0.04240,
,,,-00.067600000000,  -0.04320,
,,,-00.067500000000,  -0.04240,
,,,-00.067400000000,  -0.04240,
,,,-00.067300000000,  -0.04160,
,,,-00.067200000000,  -0.04160,
,,,-00.067100000000,  -0.04080,
,,,-00.067000000000,  -0.04080,
,,,-00.066900000000,  -0.04000,
,,,-00.066800000000,  -0.04000,
,,,-00.066700000000,  -0.04000,
,,,-00.066600000000,  -0.04000,
,,,-00.066500000000,  -0.03920,
,,,-00.066400000000,  -0.03920,
,,,-00.066300000000,  -0.03920,
,,,-00.066200000000,  -0.03840,
,,,-00.066100000000,  -0.03840,
,,,-00.066000000000,  -0.03760,
,,,-00.065900000000,  -0.03760,
,,,-00.065800000000,  -0.03840,
,,,-00.065700000000,  -0.03680,
,,,-00.065600000000,  -0.03680,
,,,-00.065500000000,  -0.03680,
,,,-00.065400000000,  -0.03680,
,,,-00.065300000000,  -0.03760,
,,,-00.065200000000,  -0.03680,
,,,-00.065100000000,  -0.03760,
,,,-00.065000000000,  -0.03760,
,,,-00.064900000000,  -0.03760,
,,,-00.064800000000,  -0.03760,
,,,-00.064700000000,  -0.03840,
,,,-00.064600000000,  -0.03920,
,,,-00.064500000000,  -0.03920,
,,,-00.064400000000,  -0.03920,
,,,-00.064300000000,  -0.03920,
,,,-00.064200000000,  -0.04000,
,,,-00.064100000000,  -0.04080,
,,,-00.064000000000,  -0.04080,
,,,-00.063900000000,  -0.04080,
,,,-00.063800000000,  -0.04160,
,,,-00.063700000000,  -0.04240,
